…
``` r
co2 <- 
readr::read_table("ftp://aftp.cmdl.noaa.gov/products/trends/co2/co2_mm_mlo.txt", 
                  comment="#",
                  col_names = c("year", "month", "decimal_date", "average",
                                "interpolated", "trend", "days"),
                  na = c("-1", "-99.99"))
co2
```

    ## # A tibble: 726 x 7
    ##     year month decimal_date average interpolated trend  days
    ##    <int> <int>        <dbl>   <dbl>        <dbl> <dbl> <int>
    ##  1  1958     3        1958.    316.         316.  315.    NA
    ##  2  1958     4        1958.    317.         317.  315.    NA
    ##  3  1958     5        1958.    318.         318.  315.    NA
    ##  4  1958     6        1958.     NA          317.  315.    NA
    ##  5  1958     7        1959.    316.         316.  315.    NA
    ##  6  1958     8        1959.    315.         315.  316.    NA
    ##  7  1958     9        1959.    313.         313.  316.    NA
    ##  8  1958    10        1959.     NA          313.  316.    NA
    ##  9  1958    11        1959.    313.         313.  315.    NA
    ## 10  1958    12        1959.    315.         315.  316.    NA
    ## # ... with 716 more rows
…
Question 2:
-----------

Construct the necessary R code to import and prepare for manipulation the following data set: <http://climate.nasa.gov/system/internal_resources/details/original/647_Global_Temperature_Data_File.txt>

``` r
co2_index <- 
readr::read_tsv("http://climate.nasa.gov/system/internal_resources/details/original/647_Global_Temperature_Data_File.txt", 
                  comment="#",
                  col_names = c("year", "annual_mean", "lowess_smoothing"))
co2_index
```

    ## # A tibble: 138 x 3
    ##     year annual_mean lowess_smoothing
    ##    <int>       <dbl>            <dbl>
    ##  1  1880       -0.19            -0.11
    ##  2  1881       -0.1             -0.14
    ##  3  1882       -0.1             -0.17
    ##  4  1883       -0.19            -0.21
    ##  5  1884       -0.28            -0.24
    ##  6  1885       -0.31            -0.26
    ##  7  1886       -0.32            -0.27
    ##  8  1887       -0.35            -0.27
    ##  9  1888       -0.18            -0.27
    ## 10  1889       -0.11            -0.26
    ## # ... with 128 more rows
…
    ## Parsed with column specification:
    ## cols(
    ##   time = col_double(),
    ##   a1_mass = col_double(),
    ##   a2_mass = col_double()
    ## )

``` r
ice_sheets
```

    ## # A tibble: 140 x 3
    ##     time a1_mass a2_mass
    ##    <dbl>   <dbl>   <dbl>
    ##  1 2002.   1491.    967.
    ##  2 2002.   1486.    979.
    ##  3 2003.   1287.    512.
    ##  4 2003.   1258.    859.
    ##  5 2003.   1257.    694.
    ##  6 2003.   1288.    592.
    ##  7 2003.   1337.    658.
    ##  8 2003.   1354.    477.
    ##  9 2003.   1363.    546.
    ## 10 2003.   1427.    494.
    ## # ... with 130 more rows
…
    ## Warning in rbind(names(probs), probs_f): number of columns of result is not
    ## a multiple of vector length (arg 1)

    ## Warning: 847 parsing failures.
    ## row # A tibble: 5 x 5 col     row col   expected   actual   file                                     expected   <int> <chr> <chr>      <chr>    <chr>                                    actual 1     1 <NA>  11 columns 12 colu~ 'http://climate.nasa.gov/system/interna~ file 2     2 <NA>  11 columns 12 colu~ 'http://climate.nasa.gov/system/interna~ row 3     3 <NA>  11 columns 12 colu~ 'http://climate.nasa.gov/system/interna~ col 4     4 <NA>  11 columns 12 colu~ 'http://climate.nasa.gov/system/interna~ expected 5     5 <NA>  11 columns 12 colu~ 'http://climate.nasa.gov/system/interna~
    ## ... ................. ... .......................................................................... ........ .......................................................................... ...... .......................................................................... .... .......................................................................... ... .......................................................................... ... .......................................................................... ........ ..........................................................................
    ## See problems(...) for more details.

``` r
sea_level
```

    ## # A tibble: 847 x 11
    ##    `alimeter type` `merged file cy~ year_fraction_y~ `No. observ`
    ##              <int>            <int>            <dbl>        <int>
    ##  1               0               11            1993.       463892
    ##  2               0               12            1993.       458154
    ##  3               0               13            1993.       469524
    ##  4               0               14            1993.       419112
    ##  5               0               15            1993.       456793
    ##  6               0               16            1993.       414055
    ##  7               0               17            1993.       465235
    ##  8               0               18            1993.       463257
    ##  9               0               19            1993.       458542
    ## 10             999               20            1993.       464921
    ## # ... with 837 more rows, and 7 more variables: `No. weighted
    ## #   observ` <dbl>, GMSL <dbl>, `SD GMSL` <dbl>, GMSL_variation <dbl>, `SD
    ## #   GMSL variation` <dbl>, `smoothed GMSL var` <dbl>, `smooth GMSL
    ## #   variation w/o yearly signal` <dbl>
…
    ## Parsed with column specification:
    ## cols(
    ##   year = col_integer(),
    ##   month = col_character(),
    ##   day = col_character(),
    ##   extent_sq_km = col_double(),
    ##   missing = col_double(),
    ##   source = col_character()
    ## )

``` r
ice_level
```

    ## # A tibble: 12,917 x 6
    ##     year month day   extent_sq_km missing source                          
    ##    <int> <chr> <chr>        <dbl>   <dbl> <chr>                           
    ##  1  1978 10    26            10.2       0 ['ftp://sidads.colorado.edu/pub~
    ##  2  1978 10    28            10.4       0 ['ftp://sidads.colorado.edu/pub~
    ##  3  1978 10    30            10.6       0 ['ftp://sidads.colorado.edu/pub~
    ##  4  1978 11    01            10.7       0 ['ftp://sidads.colorado.edu/pub~
    ##  5  1978 11    03            10.8       0 ['ftp://sidads.colorado.edu/pub~
    ##  6  1978 11    05            11.0       0 ['ftp://sidads.colorado.edu/pub~
    ##  7  1978 11    07            11.1       0 ['ftp://sidads.colorado.edu/pub~
    ##  8  1978 11    09            11.2       0 ['ftp://sidads.colorado.edu/pub~
    ##  9  1978 11    11            11.3       0 ['ftp://sidads.colorado.edu/pub~
    ## 10  1978 11    13            11.5       0 ['ftp://sidads.colorado.edu/pub~
    ## # ... with 12,907 more rows
…
    ## Parsed with column specification:
    ## cols(
    ##   depth = col_double(),
    ##   age_ice = col_integer(),
    ##   age_air = col_integer(),
    ##   co2_concentration = col_double()
    ## )

``` r
longtcarbon
```

    ## # A tibble: 363 x 4
    ##    depth age_ice age_air co2_concentration
    ##    <dbl>   <int>   <int>             <dbl>
    ##  1  149.    5679    2342              285.
    ##  2  173.    6828    3634              273.
    ##  3  177.    7043    3833              268.
    ##  4  229.    9523    6220              262.
    ##  5  250.   10579    7327              255.
    ##  6  266    11334    8113              260.
    ##  7  303.   13449   10123              262.
    ##  8  321.   14538   11013              264.
    ##  9  332.   15208   11326              245.
    ## 10  342.   15922   11719              238.
    ## # ... with 353 more rows
…
``` r
co2_index # remember to finish this code chunk
```

    ## # A tibble: 138 x 3
    ##     year annual_mean lowess_smoothing
    ##    <int>       <dbl>            <dbl>
    ##  1  1880       -0.19            -0.11
    ##  2  1881       -0.1             -0.14
    ##  3  1882       -0.1             -0.17
    ##  4  1883       -0.19            -0.21
    ##  5  1884       -0.28            -0.24
    ##  6  1885       -0.31            -0.26
    ##  7  1886       -0.32            -0.27
    ##  8  1887       -0.35            -0.27
    ##  9  1888       -0.18            -0.27
    ## 10  1889       -0.11            -0.26
    ## # ... with 128 more rows
…
